{
	"inputs" : 
	[
		{
			"path" : "CMakeLists.txt"
		},
		{
			"isCMake" : true,
			"isExternal" : true,
			"path" : "/Users/lollo3rd/Desktop/QT_Creator/Tools/CMake/CMake.app/Contents/share/cmake-3.17/Modules/CMakeDetermineSystem.cmake"
		},
		{
			"isCMake" : true,
			"isExternal" : true,
			"path" : "/Users/lollo3rd/Desktop/QT_Creator/Tools/CMake/CMake.app/Contents/share/cmake-3.17/Modules/CMakeSystem.cmake.in"
		},
		{
			"isGenerated" : true,
			"path" : "/Users/lollo3rd/Desktop/PROGRAMMAZIONE E CALCOLO SCIENTIFICO/TEST/exercises/4_DesignPattern/Exercise_2/build-C++-bohhh-Debug/CMakeFiles/3.17.1/CMakeSystem.cmake"
		},
		{
			"isCMake" : true,
			"isExternal" : true,
			"path" : "/Users/lollo3rd/Desktop/QT_Creator/Tools/CMake/CMake.app/Contents/share/cmake-3.17/Modules/CMakeNinjaFindMake.cmake"
		},
		{
			"isCMake" : true,
			"isExternal" : true,
			"path" : "/Users/lollo3rd/Desktop/QT_Creator/Tools/CMake/CMake.app/Contents/share/cmake-3.17/Modules/CMakeSystemSpecificInitialize.cmake"
		},
		{
			"isCMake" : true,
			"isExternal" : true,
			"path" : "/Users/lollo3rd/Desktop/QT_Creator/Tools/CMake/CMake.app/Contents/share/cmake-3.17/Modules/Platform/Darwin-Initialize.cmake"
		},
		{
			"isCMake" : true,
			"isExternal" : true,
			"path" : "/Users/lollo3rd/Desktop/QT_Creator/Tools/CMake/CMake.app/Contents/share/cmake-3.17/Modules/CMakeDetermineCXXCompiler.cmake"
		},
		{
			"isCMake" : true,
			"isExternal" : true,
			"path" : "/Users/lollo3rd/Desktop/QT_Creator/Tools/CMake/CMake.app/Contents/share/cmake-3.17/Modules/CMakeDetermineCompiler.cmake"
		},
		{
			"isCMake" : true,
			"isExternal" : true,
			"path" : "/Users/lollo3rd/Desktop/QT_Creator/Tools/CMake/CMake.app/Contents/share/cmake-3.17/Modules/Platform/Darwin-Determine-CXX.cmake"
		},
		{
			"isCMake" : true,
			"isExternal" : true,
			"path" : "/Users/lollo3rd/Desktop/QT_Creator/Tools/CMake/CMake.app/Contents/share/cmake-3.17/Modules/CMakeDetermineCompilerId.cmake"
		},
		{
			"isCMake" : true,
			"isExternal" : true,
			"path" : "/Users/lollo3rd/Desktop/QT_Creator/Tools/CMake/CMake.app/Contents/share/cmake-3.17/Modules/CMakeCompilerIdDetection.cmake"
		},
		{
			"isCMake" : true,
			"isExternal" : true,
			"path" : "/Users/lollo3rd/Desktop/QT_Creator/Tools/CMake/CMake.app/Contents/share/cmake-3.17/Modules/Compiler/ADSP-DetermineCompiler.cmake"
		},
		{
			"isCMake" : true,
			"isExternal" : true,
			"path" : "/Users/lollo3rd/Desktop/QT_Creator/Tools/CMake/CMake.app/Contents/share/cmake-3.17/Modules/Compiler/ARMCC-DetermineCompiler.cmake"
		},
		{
			"isCMake" : true,
			"isExternal" : true,
			"path" : "/Users/lollo3rd/Desktop/QT_Creator/Tools/CMake/CMake.app/Contents/share/cmake-3.17/Modules/Compiler/ARMClang-DetermineCompiler.cmake"
		},
		{
			"isCMake" : true,
			"isExternal" : true,
			"path" : "/Users/lollo3rd/Desktop/QT_Creator/Tools/CMake/CMake.app/Contents/share/cmake-3.17/Modules/Compiler/AppleClang-DetermineCompiler.cmake"
		},
		{
			"isCMake" : true,
			"isExternal" : true,
			"path" : "/Users/lollo3rd/Desktop/QT_Creator/Tools/CMake/CMake.app/Contents/share/cmake-3.17/Modules/Compiler/Clang-DetermineCompilerInternal.cmake"
		},
		{
			"isCMake" : true,
			"isExternal" : true,
			"path" : "/Users/lollo3rd/Desktop/QT_Creator/Tools/CMake/CMake.app/Contents/share/cmake-3.17/Modules/Compiler/Borland-DetermineCompiler.cmake"
		},
		{
			"isCMake" : true,
			"isExternal" : true,
			"path" : "/Users/lollo3rd/Desktop/QT_Creator/Tools/CMake/CMake.app/Contents/share/cmake-3.17/Modules/Compiler/Clang-DetermineCompiler.cmake"
		},
		{
			"isCMake" : true,
			"isExternal" : true,
			"path" : "/Users/lollo3rd/Desktop/QT_Creator/Tools/CMake/CMake.app/Contents/share/cmake-3.17/Modules/Compiler/Clang-DetermineCompilerInternal.cmake"
		},
		{
			"isCMake" : true,
			"isExternal" : true,
			"path" : "/Users/lollo3rd/Desktop/QT_Creator/Tools/CMake/CMake.app/Contents/share/cmake-3.17/Modules/Compiler/Comeau-CXX-DetermineCompiler.cmake"
		},
		{
			"isCMake" : true,
			"isExternal" : true,
			"path" : "/Users/lollo3rd/Desktop/QT_Creator/Tools/CMake/CMake.app/Contents/share/cmake-3.17/Modules/Compiler/Compaq-CXX-DetermineCompiler.cmake"
		},
		{
			"isCMake" : true,
			"isExternal" : true,
			"path" : "/Users/lollo3rd/Desktop/QT_Creator/Tools/CMake/CMake.app/Contents/share/cmake-3.17/Modules/Compiler/Cray-DetermineCompiler.cmake"
		},
		{
			"isCMake" : true,
			"isExternal" : true,
			"path" : "/Users/lollo3rd/Desktop/QT_Creator/Tools/CMake/CMake.app/Contents/share/cmake-3.17/Modules/Compiler/Embarcadero-DetermineCompiler.cmake"
		},
		{
			"isCMake" : true,
			"isExternal" : true,
			"path" : "/Users/lollo3rd/Desktop/QT_Creator/Tools/CMake/CMake.app/Contents/share/cmake-3.17/Modules/Compiler/Fujitsu-DetermineCompiler.cmake"
		},
		{
			"isCMake" : true,
			"isExternal" : true,
			"path" : "/Users/lollo3rd/Desktop/QT_Creator/Tools/CMake/CMake.app/Contents/share/cmake-3.17/Modules/Compiler/GHS-DetermineCompiler.cmake"
		},
		{
			"isCMake" : true,
			"isExternal" : true,
			"path" : "/Users/lollo3rd/Desktop/QT_Creator/Tools/CMake/CMake.app/Contents/share/cmake-3.17/Modules/Compiler/GNU-CXX-DetermineCompiler.cmake"
		},
		{
			"isCMake" : true,
			"isExternal" : true,
			"path" : "/Users/lollo3rd/Desktop/QT_Creator/Tools/CMake/CMake.app/Contents/share/cmake-3.17/Modules/Compiler/HP-CXX-DetermineCompiler.cmake"
		},
		{
			"isCMake" : true,
			"isExternal" : true,
			"path" : "/Users/lollo3rd/Desktop/QT_Creator/Tools/CMake/CMake.app/Contents/share/cmake-3.17/Modules/Compiler/IAR-DetermineCompiler.cmake"
		},
		{
			"isCMake" : true,
			"isExternal" : true,
			"path" : "/Users/lollo3rd/Desktop/QT_Creator/Tools/CMake/CMake.app/Contents/share/cmake-3.17/Modules/Compiler/Intel-DetermineCompiler.cmake"
		},
		{
			"isCMake" : true,
			"isExternal" : true,
			"path" : "/Users/lollo3rd/Desktop/QT_Creator/Tools/CMake/CMake.app/Contents/share/cmake-3.17/Modules/Compiler/MSVC-DetermineCompiler.cmake"
		},
		{
			"isCMake" : true,
			"isExternal" : true,
			"path" : "/Users/lollo3rd/Desktop/QT_Creator/Tools/CMake/CMake.app/Contents/share/cmake-3.17/Modules/Compiler/NVIDIA-DetermineCompiler.cmake"
		},
		{
			"isCMake" : true,
			"isExternal" : true,
			"path" : "/Users/lollo3rd/Desktop/QT_Creator/Tools/CMake/CMake.app/Contents/share/cmake-3.17/Modules/Compiler/OpenWatcom-DetermineCompiler.cmake"
		},
		{
			"isCMake" : true,
			"isExternal" : true,
			"path" : "/Users/lollo3rd/Desktop/QT_Creator/Tools/CMake/CMake.app/Contents/share/cmake-3.17/Modules/Compiler/PGI-DetermineCompiler.cmake"
		},
		{
			"isCMake" : true,
			"isExternal" : true,
			"path" : "/Users/lollo3rd/Desktop/QT_Creator/Tools/CMake/CMake.app/Contents/share/cmake-3.17/Modules/Compiler/PathScale-DetermineCompiler.cmake"
		},
		{
			"isCMake" : true,
			"isExternal" : true,
			"path" : "/Users/lollo3rd/Desktop/QT_Creator/Tools/CMake/CMake.app/Contents/share/cmake-3.17/Modules/Compiler/SCO-DetermineCompiler.cmake"
		},
		{
			"isCMake" : true,
			"isExternal" : true,
			"path" : "/Users/lollo3rd/Desktop/QT_Creator/Tools/CMake/CMake.app/Contents/share/cmake-3.17/Modules/Compiler/SunPro-CXX-DetermineCompiler.cmake"
		},
		{
			"isCMake" : true,
			"isExternal" : true,
			"path" : "/Users/lollo3rd/Desktop/QT_Creator/Tools/CMake/CMake.app/Contents/share/cmake-3.17/Modules/Compiler/TI-DetermineCompiler.cmake"
		},
		{
			"isCMake" : true,
			"isExternal" : true,
			"path" : "/Users/lollo3rd/Desktop/QT_Creator/Tools/CMake/CMake.app/Contents/share/cmake-3.17/Modules/Compiler/VisualAge-CXX-DetermineCompiler.cmake"
		},
		{
			"isCMake" : true,
			"isExternal" : true,
			"path" : "/Users/lollo3rd/Desktop/QT_Creator/Tools/CMake/CMake.app/Contents/share/cmake-3.17/Modules/Compiler/IBMCPP-CXX-DetermineVersionInternal.cmake"
		},
		{
			"isCMake" : true,
			"isExternal" : true,
			"path" : "/Users/lollo3rd/Desktop/QT_Creator/Tools/CMake/CMake.app/Contents/share/cmake-3.17/Modules/Compiler/Watcom-DetermineCompiler.cmake"
		},
		{
			"isCMake" : true,
			"isExternal" : true,
			"path" : "/Users/lollo3rd/Desktop/QT_Creator/Tools/CMake/CMake.app/Contents/share/cmake-3.17/Modules/Compiler/XL-CXX-DetermineCompiler.cmake"
		},
		{
			"isCMake" : true,
			"isExternal" : true,
			"path" : "/Users/lollo3rd/Desktop/QT_Creator/Tools/CMake/CMake.app/Contents/share/cmake-3.17/Modules/Compiler/IBMCPP-CXX-DetermineVersionInternal.cmake"
		},
		{
			"isCMake" : true,
			"isExternal" : true,
			"path" : "/Users/lollo3rd/Desktop/QT_Creator/Tools/CMake/CMake.app/Contents/share/cmake-3.17/Modules/Compiler/XLClang-CXX-DetermineCompiler.cmake"
		},
		{
			"isCMake" : true,
			"isExternal" : true,
			"path" : "/Users/lollo3rd/Desktop/QT_Creator/Tools/CMake/CMake.app/Contents/share/cmake-3.17/Modules/Compiler/zOS-CXX-DetermineCompiler.cmake"
		},
		{
			"isCMake" : true,
			"isExternal" : true,
			"path" : "/Users/lollo3rd/Desktop/QT_Creator/Tools/CMake/CMake.app/Contents/share/cmake-3.17/Modules/Compiler/IBMCPP-CXX-DetermineVersionInternal.cmake"
		},
		{
			"isCMake" : true,
			"isExternal" : true,
			"path" : "/Users/lollo3rd/Desktop/QT_Creator/Tools/CMake/CMake.app/Contents/share/cmake-3.17/Modules/CMakeFindBinUtils.cmake"
		},
		{
			"isCMake" : true,
			"isExternal" : true,
			"path" : "/Users/lollo3rd/Desktop/QT_Creator/Tools/CMake/CMake.app/Contents/share/cmake-3.17/Modules/CMakeCXXCompiler.cmake.in"
		},
		{
			"isGenerated" : true,
			"path" : "/Users/lollo3rd/Desktop/PROGRAMMAZIONE E CALCOLO SCIENTIFICO/TEST/exercises/4_DesignPattern/Exercise_2/build-C++-bohhh-Debug/CMakeFiles/3.17.1/CMakeCXXCompiler.cmake"
		},
		{
			"isCMake" : true,
			"isExternal" : true,
			"path" : "/Users/lollo3rd/Desktop/QT_Creator/Tools/CMake/CMake.app/Contents/share/cmake-3.17/Modules/CMakeSystemSpecificInformation.cmake"
		},
		{
			"isCMake" : true,
			"isExternal" : true,
			"path" : "/Users/lollo3rd/Desktop/QT_Creator/Tools/CMake/CMake.app/Contents/share/cmake-3.17/Modules/CMakeGenericSystem.cmake"
		},
		{
			"isCMake" : true,
			"isExternal" : true,
			"path" : "/Users/lollo3rd/Desktop/QT_Creator/Tools/CMake/CMake.app/Contents/share/cmake-3.17/Modules/CMakeInitializeConfigs.cmake"
		},
		{
			"isCMake" : true,
			"isExternal" : true,
			"path" : "/Users/lollo3rd/Desktop/QT_Creator/Tools/CMake/CMake.app/Contents/share/cmake-3.17/Modules/Platform/Darwin.cmake"
		},
		{
			"isCMake" : true,
			"isExternal" : true,
			"path" : "/Users/lollo3rd/Desktop/QT_Creator/Tools/CMake/CMake.app/Contents/share/cmake-3.17/Modules/Platform/UnixPaths.cmake"
		},
		{
			"isCMake" : true,
			"isExternal" : true,
			"path" : "/Users/lollo3rd/Desktop/QT_Creator/Tools/CMake/CMake.app/Contents/share/cmake-3.17/Modules/CMakeCXXInformation.cmake"
		},
		{
			"isCMake" : true,
			"isExternal" : true,
			"path" : "/Users/lollo3rd/Desktop/QT_Creator/Tools/CMake/CMake.app/Contents/share/cmake-3.17/Modules/CMakeLanguageInformation.cmake"
		},
		{
			"isCMake" : true,
			"isExternal" : true,
			"path" : "/Users/lollo3rd/Desktop/QT_Creator/Tools/CMake/CMake.app/Contents/share/cmake-3.17/Modules/Compiler/AppleClang-CXX.cmake"
		},
		{
			"isCMake" : true,
			"isExternal" : true,
			"path" : "/Users/lollo3rd/Desktop/QT_Creator/Tools/CMake/CMake.app/Contents/share/cmake-3.17/Modules/Compiler/Clang.cmake"
		},
		{
			"isCMake" : true,
			"isExternal" : true,
			"path" : "/Users/lollo3rd/Desktop/QT_Creator/Tools/CMake/CMake.app/Contents/share/cmake-3.17/Modules/Compiler/CMakeCommonCompilerMacros.cmake"
		},
		{
			"isCMake" : true,
			"isExternal" : true,
			"path" : "/Users/lollo3rd/Desktop/QT_Creator/Tools/CMake/CMake.app/Contents/share/cmake-3.17/Modules/Compiler/GNU.cmake"
		},
		{
			"isCMake" : true,
			"isExternal" : true,
			"path" : "/Users/lollo3rd/Desktop/QT_Creator/Tools/CMake/CMake.app/Contents/share/cmake-3.17/Modules/Compiler/CMakeCommonCompilerMacros.cmake"
		},
		{
			"isCMake" : true,
			"isExternal" : true,
			"path" : "/Users/lollo3rd/Desktop/QT_Creator/Tools/CMake/CMake.app/Contents/share/cmake-3.17/Modules/Internal/CMakeCheckCompilerFlag.cmake"
		},
		{
			"isCMake" : true,
			"isExternal" : true,
			"path" : "/Users/lollo3rd/Desktop/QT_Creator/Tools/CMake/CMake.app/Contents/share/cmake-3.17/Modules/CMakeCheckCompilerFlagCommonPatterns.cmake"
		},
		{
			"isCMake" : true,
			"isExternal" : true,
			"path" : "/Users/lollo3rd/Desktop/QT_Creator/Tools/CMake/CMake.app/Contents/share/cmake-3.17/Modules/Platform/Apple-AppleClang-CXX.cmake"
		},
		{
			"isCMake" : true,
			"isExternal" : true,
			"path" : "/Users/lollo3rd/Desktop/QT_Creator/Tools/CMake/CMake.app/Contents/share/cmake-3.17/Modules/Platform/Apple-Clang-CXX.cmake"
		},
		{
			"isCMake" : true,
			"isExternal" : true,
			"path" : "/Users/lollo3rd/Desktop/QT_Creator/Tools/CMake/CMake.app/Contents/share/cmake-3.17/Modules/Platform/Apple-Clang.cmake"
		},
		{
			"isCMake" : true,
			"isExternal" : true,
			"path" : "/Users/lollo3rd/Desktop/QT_Creator/Tools/CMake/CMake.app/Contents/share/cmake-3.17/Modules/CMakeCommonLanguageInclude.cmake"
		},
		{
			"isCMake" : true,
			"isExternal" : true,
			"path" : "/Users/lollo3rd/Desktop/QT_Creator/Tools/CMake/CMake.app/Contents/share/cmake-3.17/Modules/CMakeTestCXXCompiler.cmake"
		},
		{
			"isCMake" : true,
			"isExternal" : true,
			"path" : "/Users/lollo3rd/Desktop/QT_Creator/Tools/CMake/CMake.app/Contents/share/cmake-3.17/Modules/CMakeTestCompilerCommon.cmake"
		},
		{
			"isCMake" : true,
			"isExternal" : true,
			"path" : "/Users/lollo3rd/Desktop/QT_Creator/Tools/CMake/CMake.app/Contents/share/cmake-3.17/Modules/CMakeDetermineCompilerABI.cmake"
		},
		{
			"isCMake" : true,
			"isExternal" : true,
			"path" : "/Users/lollo3rd/Desktop/QT_Creator/Tools/CMake/CMake.app/Contents/share/cmake-3.17/Modules/CMakeParseImplicitIncludeInfo.cmake"
		},
		{
			"isCMake" : true,
			"isExternal" : true,
			"path" : "/Users/lollo3rd/Desktop/QT_Creator/Tools/CMake/CMake.app/Contents/share/cmake-3.17/Modules/CMakeParseImplicitLinkInfo.cmake"
		},
		{
			"isCMake" : true,
			"isExternal" : true,
			"path" : "/Users/lollo3rd/Desktop/QT_Creator/Tools/CMake/CMake.app/Contents/share/cmake-3.17/Modules/CMakeTestCompilerCommon.cmake"
		},
		{
			"isCMake" : true,
			"isExternal" : true,
			"path" : "/Users/lollo3rd/Desktop/QT_Creator/Tools/CMake/CMake.app/Contents/share/cmake-3.17/Modules/CMakeCXXCompilerABI.cpp"
		},
		{
			"isCMake" : true,
			"isExternal" : true,
			"path" : "/Users/lollo3rd/Desktop/QT_Creator/Tools/CMake/CMake.app/Contents/share/cmake-3.17/Modules/CMakeDetermineCompileFeatures.cmake"
		},
		{
			"isCMake" : true,
			"isExternal" : true,
			"path" : "/Users/lollo3rd/Desktop/QT_Creator/Tools/CMake/CMake.app/Contents/share/cmake-3.17/Modules/Internal/FeatureTesting.cmake"
		},
		{
			"isCMake" : true,
			"isExternal" : true,
			"path" : "/Users/lollo3rd/Desktop/QT_Creator/Tools/CMake/CMake.app/Contents/share/cmake-3.17/Modules/CMakeCXXCompiler.cmake.in"
		},
		{
			"isGenerated" : true,
			"path" : "/Users/lollo3rd/Desktop/PROGRAMMAZIONE E CALCOLO SCIENTIFICO/TEST/exercises/4_DesignPattern/Exercise_2/build-C++-bohhh-Debug/CMakeFiles/3.17.1/CMakeCXXCompiler.cmake"
		},
		{
			"isCMake" : true,
			"isExternal" : true,
			"path" : "/Users/lollo3rd/Desktop/QT_Creator/Tools/CMake/CMake.app/Contents/share/cmake-3.17/Modules/FindThreads.cmake"
		},
		{
			"isCMake" : true,
			"isExternal" : true,
			"path" : "/Users/lollo3rd/Desktop/QT_Creator/Tools/CMake/CMake.app/Contents/share/cmake-3.17/Modules/CheckLibraryExists.cmake"
		},
		{
			"isCMake" : true,
			"isExternal" : true,
			"path" : "/Users/lollo3rd/Desktop/QT_Creator/Tools/CMake/CMake.app/Contents/share/cmake-3.17/Modules/CheckIncludeFileCXX.cmake"
		},
		{
			"isCMake" : true,
			"isExternal" : true,
			"path" : "/Users/lollo3rd/Desktop/QT_Creator/Tools/CMake/CMake.app/Contents/share/cmake-3.17/Modules/CheckCXXSourceCompiles.cmake"
		},
		{
			"isCMake" : true,
			"isExternal" : true,
			"path" : "/Users/lollo3rd/Desktop/QT_Creator/Tools/CMake/CMake.app/Contents/share/cmake-3.17/Modules/CheckIncludeFile.cxx.in"
		},
		{
			"isCMake" : true,
			"isExternal" : true,
			"path" : "/Users/lollo3rd/Desktop/QT_Creator/Tools/CMake/CMake.app/Contents/share/cmake-3.17/Modules/FindPackageHandleStandardArgs.cmake"
		},
		{
			"isCMake" : true,
			"isExternal" : true,
			"path" : "/Users/lollo3rd/Desktop/QT_Creator/Tools/CMake/CMake.app/Contents/share/cmake-3.17/Modules/FindPackageMessage.cmake"
		},
		{
			"isCMake" : true,
			"isExternal" : true,
			"path" : "/Users/lollo3rd/Desktop/QT_Creator/Tools/CMake/CMake.app/Contents/share/cmake-3.17/Modules/GoogleTest.cmake"
		}
	],
	"kind" : "cmakeFiles",
	"paths" : 
	{
		"build" : "/Users/lollo3rd/Desktop/PROGRAMMAZIONE E CALCOLO SCIENTIFICO/TEST/exercises/4_DesignPattern/Exercise_2/build-C++-bohhh-Debug",
		"source" : "/Users/lollo3rd/Desktop/PROGRAMMAZIONE E CALCOLO SCIENTIFICO/TEST/exercises/4_DesignPattern/Exercise_2/C++"
	},
	"version" : 
	{
		"major" : 1,
		"minor" : 0
	}
}
