{
	"cmake" : 
	{
		"generator" : 
		{
			"multiConfig" : false,
			"name" : "Ninja"
		},
		"paths" : 
		{
			"cmake" : "/Users/lollo3rd/Desktop/QT_Creator/Tools/CMake/CMake.app/Contents/bin/cmake",
			"cpack" : "/Users/lollo3rd/Desktop/QT_Creator/Tools/CMake/CMake.app/Contents/bin/cpack",
			"ctest" : "/Users/lollo3rd/Desktop/QT_Creator/Tools/CMake/CMake.app/Contents/bin/ctest",
			"root" : "/Users/lollo3rd/Desktop/QT_Creator/Tools/CMake/CMake.app/Contents/share/cmake-3.17"
		},
		"version" : 
		{
			"isDirty" : false,
			"major" : 3,
			"minor" : 17,
			"patch" : 1,
			"string" : "3.17.1",
			"suffix" : ""
		}
	},
	"objects" : 
	[
		{
			"jsonFile" : "codemodel-v2-1ecae449a48af5bffa82.json",
			"kind" : "codemodel",
			"version" : 
			{
				"major" : 2,
				"minor" : 0
			}
		},
		{
			"jsonFile" : "cache-v2-bcde8f6bbb66ba7f45ed.json",
			"kind" : "cache",
			"version" : 
			{
				"major" : 2,
				"minor" : 0
			}
		},
		{
			"jsonFile" : "cmakeFiles-v1-b64fa719f08d34eb7c0e.json",
			"kind" : "cmakeFiles",
			"version" : 
			{
				"major" : 1,
				"minor" : 0
			}
		}
	],
	"reply" : 
	{
		"cache-v2" : 
		{
			"jsonFile" : "cache-v2-bcde8f6bbb66ba7f45ed.json",
			"kind" : "cache",
			"version" : 
			{
				"major" : 2,
				"minor" : 0
			}
		},
		"cmakeFiles-v1" : 
		{
			"jsonFile" : "cmakeFiles-v1-b64fa719f08d34eb7c0e.json",
			"kind" : "cmakeFiles",
			"version" : 
			{
				"major" : 1,
				"minor" : 0
			}
		},
		"codemodel-v2" : 
		{
			"jsonFile" : "codemodel-v2-1ecae449a48af5bffa82.json",
			"kind" : "codemodel",
			"version" : 
			{
				"major" : 2,
				"minor" : 0
			}
		}
	}
}
